0,1,2,3
1641671_16812_5da86b9e6aca5.png,done,1641671_a3e5c_5da86b9eb095b.png,done
1641671_a3e5c_5da86b9eb095b.png,done,1641671_19aa8_5da86b9e5c2ea.png,reviewed
1641671_19aa8_5da86b9e5c2ea.png,reviewed,1641671_883e9_5da86b9dadf03.png,reviewed
1641671_883e9_5da86b9dadf03.png,reviewed,1641671_77285_5da86b9deff7b.png,done
1641671_77285_5da86b9deff7b.png,done,1641671_94982_5da86b9e93601.png,done
1641671_94982_5da86b9e93601.png,done,1641671_13a08_5da86b9ebc951.png,done
1641671_13a08_5da86b9ebc951.png,done,1641671_fb0b5_5da86b9ec28fb.png,reviewed
1641671_fb0b5_5da86b9ec28fb.png,reviewed,1641671_41e37_5da86b9ec1820.png,reviewed
1641671_41e37_5da86b9ec1820.png,reviewed,1641671_1b50d_5da86b9fe2d32.png,done
1641671_1b50d_5da86b9fe2d32.png,done,1641671_31aaa_5da86b9f96053.png,done
1641671_31aaa_5da86b9f96053.png,done,1641671_6a91e_5da86ba040148.png,done
1641671_6a91e_5da86ba040148.png,done,1641671_2cca1_5da86b9fad79b.png,done
1641671_2cca1_5da86b9fad79b.png,done,1641671_bac03_5da86ba79be0d.png,done
1641671_bac03_5da86ba79be0d.png,done,1641671_62bf7_5da86ba7d2808.png,done
1641671_da5bc_5da86ba8851ef.png,done,1641671_1a83b_5da86ba8b333c.png,done
1641671_1a83b_5da86ba8b333c.png,done,1641671_ca526_5da86ba959fda.png,done
1641671_ba230_5da86baa9b0ca.png,done,1641671_f06e7_5da86baac5ce5.png,done
1641671_f06e7_5da86baac5ce5.png,done,1641671_8060f_5da86bac6c344.png,done
1641671_8060f_5da86bac6c344.png,done,1641671_5f6af_5da86bad3e624.png,done
1641671_5f6af_5da86bad3e624.png,done,1641671_19ee7_5da86bae8d62b.png,done
1652631_5a4d0_5dc1a48765d78.png,reviewed,1652631_55d3f_5dc1a487857f8.png,reviewed
1652631_55d3f_5dc1a487857f8.png,reviewed,1652631_f1528_5dc1a4874c3c6.png,reviewed
1652631_4ac56_5dc1a4895295c.png,done,1652631_034d3_5dc1a48ab3a7f.png,done
1652631_034d3_5dc1a48ab3a7f.png,done,1652631_9c3d1_5dc1a48b52cf9.png,done
1652631_a0d99_5dc1a48be29d9.png,done,1652631_61503_5dc1a48c29306.png,done
1652631_61503_5dc1a48c29306.png,done,1652631_25f88_5dc1a48c840fb.png,done
1652631_25f88_5dc1a48c840fb.png,done,1652631_a3c10_5dc1a48cd47de.png,done
1652631_a3c10_5dc1a48cd47de.png,done,1652631_6c008_5dc1a48eac820.png,done
1652631_6c008_5dc1a48eac820.png,done,1652631_d11d9_5dc1a48ea393f.png,done
1652631_d11d9_5dc1a48ea393f.png,done,1652631_22800_5dc1a48f0d891.png,done
1652631_d4e09_5dc1a4913456b.png,done,1652631_21bc6_5dc1a491e94ce.png,done
1652631_a59b6_5dc1a492c028b.png,done,1652631_2c3dc_5dc1a4933af96.png,done
1652631_2c3dc_5dc1a4933af96.png,done,1652631_392ac_5dc1a492aabc5.png,done
1652631_29aa6_5dc1a493eb0c7.png,done,1652631_08c92_5dc1a49531922.png,done
1652631_6179d_5dc1a498b1e45.png,done,1652631_96a59_5dc1a49a1549d.png,done
1652631_4b5d3_5dc1a49b74138.png,done,1652631_fa7ae_5dc1a49cb08f3.png,done
1652631_60171_5dc1a49ebb425.png,done,1652631_a4946_5dc1a49ef3af9.png,done
1652631_a4946_5dc1a49ef3af9.png,done,1652631_4a8f2_5dc1a49ee1fee.png,done
1658831_03961_5dc2aeddca2e5.png,reviewed,1658831_d73ed_5dc2aedf23231.png,reviewed
1658831_d73ed_5dc2aedf23231.png,reviewed,1658831_712b9_5dc2aede71366.png,reviewed
1658831_712b9_5dc2aede71366.png,reviewed,1658831_5ea0f_5dc2aedf148bb.png,reviewed
1658831_c95f5_5dc2aee39264f.png,reviewed,1658831_a8267_5dc2aee5cbfe9.png,reviewed
1658831_a8267_5dc2aee5cbfe9.png,reviewed,1658831_10059_5dc2aee6de185.png,reviewed
1658831_10059_5dc2aee6de185.png,reviewed,1658831_9694f_5dc2aee85e860.png,reviewed
1658831_9694f_5dc2aee85e860.png,reviewed,1658831_c907c_5dc2aee836ba2.png,reviewed
1658831_c907c_5dc2aee836ba2.png,reviewed,1658831_72e0f_5dc2aee9b3dce.png,reviewed
1658831_72e0f_5dc2aee9b3dce.png,reviewed,1658831_a9d16_5dc2aeea8a772.png,reviewed
1658831_a9d16_5dc2aeea8a772.png,reviewed,1658831_f1d30_5dc2aeecc12c4.png,reviewed
1658831_f1d30_5dc2aeecc12c4.png,reviewed,1658831_c8af2_5dc2aeee98a14.png,reviewed
1658831_c8af2_5dc2aeee98a14.png,reviewed,1658831_3fb0b_5dc2aef11ec9f.png,reviewed
1658831_3fb0b_5dc2aef11ec9f.png,reviewed,1658831_bc8c0_5dc2aef380c49.png,reviewed
1658831_bc8c0_5dc2aef380c49.png,reviewed,1658831_41626_5dc2aef3d1630.png,done
1658831_41626_5dc2aef3d1630.png,done,1658831_79278_5dc2aef546381.png,reviewed
1658831_79278_5dc2aef546381.png,reviewed,1658831_c5cb6_5dc2aef53e296.png,reviewed
1658831_c5cb6_5dc2aef53e296.png,reviewed,1658831_25ada_5dc2aef7d81a1.png,reviewed
1658831_25ada_5dc2aef7d81a1.png,reviewed,1658831_3e5a9_5dc2aef912af0.png,reviewed
1658831_3e5a9_5dc2aef912af0.png,reviewed,1658831_94ba7_5dc2aefa0e6c6.png,reviewed
1658831_94ba7_5dc2aefa0e6c6.png,reviewed,1658831_e2c6f_5dc2aeff1291d.png,reviewed
1658831_e2c6f_5dc2aeff1291d.png,reviewed,1658831_271f7_5dc2aeffba26b.png,reviewed
1658831_271f7_5dc2aeffba26b.png,reviewed,1658831_5f3e9_5dc2af001d7ab.png,reviewed
1658831_5f3e9_5dc2af001d7ab.png,reviewed,1658831_5fe2b_5dc2af0064324.png,done
1658831_5fe2b_5dc2af0064324.png,done,1658831_e741c_5dc2af0193bb0.png,reviewed
1658831_e741c_5dc2af0193bb0.png,reviewed,1658831_147db_5dc2af0376b21.png,reviewed
1658831_147db_5dc2af0376b21.png,reviewed,1658831_d9c24_5dc2af04ba9aa.png,done
1658831_d9c24_5dc2af04ba9aa.png,done,1658831_1c1fd_5dc2af06196fa.png,reviewed
1658831_e08ce_5dc2af07cbaba.png,done,1658831_f894a_5dc2af084dea1.png,reviewed
1658831_f894a_5dc2af084dea1.png,reviewed,1658831_85b58_5dc2af0862f85.png,reviewed
1658831_85b58_5dc2af0862f85.png,reviewed,1658831_14b04_5dc2af0a941fe.png,reviewed
1658831_14b04_5dc2af0a941fe.png,reviewed,1658831_7e094_5dc2af0ba344f.png,done
1658831_7e094_5dc2af0ba344f.png,done,1658831_1544b_5dc2af0c57b57.png,done
1658831_1544b_5dc2af0c57b57.png,done,1658831_cd2b4_5dc2af0d61f50.png,reviewed
1658831_cd2b4_5dc2af0d61f50.png,reviewed,1658831_552a3_5dc2af0faf751.png,reviewed
1658831_552a3_5dc2af0faf751.png,reviewed,1658831_e7bba_5dc2af107ebf6.png,done
1658831_e7bba_5dc2af107ebf6.png,done,1658831_c33db_5dc2af117b3a6.png,reviewed
1658831_c33db_5dc2af117b3a6.png,reviewed,1658831_b70b6_5dc2af11d0950.png,reviewed
1658831_7368a_5dc2af131c1cf.png,reviewed,1658831_5efa4_5dc2af132f72c.png,reviewed
1658831_e1500_5dc2af17eaeb6.png,reviewed,1658831_3b6c6_5dc2af1ab66f6.png,reviewed
1658831_3b6c6_5dc2af1ab66f6.png,reviewed,1658831_2aa32_5dc2af1ae545c.png,reviewed
1658831_2aa32_5dc2af1ae545c.png,reviewed,1658831_9ec4a_5dc2af1b2f40d.png,reviewed
1658831_9ec4a_5dc2af1b2f40d.png,reviewed,1658831_a81ae_5dc2af1beecf6.png,reviewed
1658831_a81ae_5dc2af1beecf6.png,reviewed,1658831_2fc77_5dc2af1d9c38e.png,done
1658831_2fc77_5dc2af1d9c38e.png,done,1658831_6c980_5dc2af1e241fb.png,reviewed
1658831_6c980_5dc2af1e241fb.png,reviewed,1658831_26cfe_5dc2af1f4871f.png,reviewed
1658831_26cfe_5dc2af1f4871f.png,reviewed,1658831_f95dc_5dc2af21299a3.png,done
1658831_f95dc_5dc2af21299a3.png,done,1658831_320f7_5dc2af23d87bb.png,reviewed
1658831_320f7_5dc2af23d87bb.png,reviewed,1658831_01679_5dc2af23cce00.png,reviewed
1658831_01679_5dc2af23cce00.png,reviewed,1658831_ed656_5dc2af24c02b5.png,reviewed
1658831_ed656_5dc2af24c02b5.png,reviewed,1658831_48706_5dc2af24cc7e6.png,reviewed
1658831_48706_5dc2af24cc7e6.png,reviewed,1658831_ee2d5_5dc2af24ed548.png,reviewed
1658831_ee2d5_5dc2af24ed548.png,reviewed,1658831_cecea_5dc2af25568ef.png,reviewed
1661867_ee6c5_5dc2e17c0713b.png,done,1661867_f140f_5dc2e17c5f80b.png,done
1661867_f140f_5dc2e17c5f80b.png,done,1661867_e29fa_5dc2e17d0fb2a.png,done
1661867_ea3fc_5dc2e18317b81.png,done,1661867_b84cf_5dc2e182ec1ea.png,done
1661867_b84cf_5dc2e182ec1ea.png,done,1661867_f31f6_5dc2e18334881.png,done
1661867_a5c0e_5dc2e187b4f54.png,done,1661867_0473f_5dc2e18884535.png,done
1661867_0473f_5dc2e18884535.png,done,1661867_4ba50_5dc2e18907029.png,done
1661867_4ba50_5dc2e18907029.png,done,1661867_af7af_5dc2e1897dc45.png,done
1661867_af7af_5dc2e1897dc45.png,done,1661867_00533_5dc2e189e77ed.png,done
1661867_161cc_5dc2e18bed334.png,reviewed,1661867_5f3c6_5dc2e18cb3f9e.png,reviewed
1661867_5f3c6_5dc2e18cb3f9e.png,reviewed,1661867_8ac54_5dc2e18dd859f.png,done
1661867_8ac54_5dc2e18dd859f.png,done,1661867_76f0e_5dc2e190ba581.png,done
1661867_76f0e_5dc2e190ba581.png,done,1661867_81a2e_5dc2e190f07ec.png,done
1661867_07aae_5dc2e1956235e.png,done,1661867_a0fd1_5dc2e1960e732.png,reviewed
1661867_a0fd1_5dc2e1960e732.png,reviewed,1661867_ef49f_5dc2e195c9f41.png,reviewed
1661867_ef49f_5dc2e195c9f41.png,reviewed,1661867_967c3_5dc2e196eae7c.png,done
1661879_f59b0_5dc2ddcb448e2.png,done,1661879_6e53d_5dc2ddcba7e58.png,done
1661879_6e53d_5dc2ddcba7e58.png,done,1661879_e192e_5dc2ddcb7e7f6.png,done
1661879_e192e_5dc2ddcb7e7f6.png,done,1661879_f1610_5dc2ddcc311c4.png,done
1661879_f1610_5dc2ddcc311c4.png,done,1661879_c5b31_5dc2ddccc5aa9.png,done
1661879_d1d5c_5dc2ddd060353.png,done,1661879_1c8b2_5dc2ddd101c55.png,done
1661879_1c8b2_5dc2ddd101c55.png,done,1661879_e1664_5dc2ddd13dcea.png,done
1661879_e1664_5dc2ddd13dcea.png,done,1661879_5e714_5dc2ddd31834c.png,done
1661879_88a9f_5dc2ddd4c742a.png,done,1661879_496c2_5dc2ddd50f232.png,done
1661879_496c2_5dc2ddd50f232.png,done,1661879_0b991_5dc2ddd56ea2f.png,done
1661879_0b991_5dc2ddd56ea2f.png,done,1661879_f7a7a_5dc2ddd61b61e.png,done
1661879_32415_5dc2dddb70880.png,done,1661879_32253_5dc2dddc0e331.png,done
1661879_32253_5dc2dddc0e331.png,done,1661879_ffd73_5dc2dddc1e15e.png,done
1661879_3c7cb_5dc2dddf947ea.png,done,1661879_18aad_5dc2dde01a02f.png,done
1661879_80032_5dc2dde1c414b.png,done,1661879_9502e_5dc2dde1e1a06.png,done
1661879_9502e_5dc2dde1e1a06.png,done,1661879_a74c7_5dc2dde1eac2a.png,done
1661879_d7442_5dc2dde6285df.png,done,1661879_d205c_5dc2dde66fa0c.png,done
1661879_f8f3c_5dc2dde70f0b6.png,done,1661879_e4720_5dc2dde759239.png,done
1661879_2efc0_5dc2ddede5c32.png,done,1661879_c1e2e_5dc2ddee67c4b.png,done
1661879_c1e2e_5dc2ddee67c4b.png,done,1661879_16287_5dc2ddf01e6e2.png,done
1661879_fa3af_5dc2ddf1d703f.png,done,1661879_0ec38_5dc2ddf25c528.png,done
1661879_0ec38_5dc2ddf25c528.png,done,1661879_b279c_5dc2ddf241c93.png,done
1661879_9e561_5dc2ddf525240.png,done,1661879_93975_5dc2ddf561703.png,done
1661879_93975_5dc2ddf561703.png,done,1661879_791b9_5dc2ddf62b050.png,done
1661895_e5fff_5dc2de6526ad2.png,reviewed,1661895_f71fe_5dc2de65c9739.png,reviewed
1661895_b668b_5dc2de69f0ea0.png,done,1661895_36c14_5dc2de6b5a5d7.png,reviewed
1661895_36c14_5dc2de6b5a5d7.png,reviewed,1661895_c057d_5dc2de6e2b031.png,reviewed
1661895_c057d_5dc2de6e2b031.png,reviewed,1661895_37bdf_5dc2de6f66d65.png,done
1661895_29ed6_5dc2de6f45c2f.png,done,1661895_61d6e_5dc2de6fb4ac7.png,done
1661895_1faec_5dc2de7ee1a25.png,done,1661895_187c0_5dc2de8060b86.png,done
1661895_187c0_5dc2de8060b86.png,done,1661895_17f0e_5dc2de833e972.png,done
1661895_17f0e_5dc2de833e972.png,done,1661895_0045a_5dc2de84833a3.png,done
1661895_0af46_5dc2de8a86b16.png,done,1661895_96aba_5dc2de8aec35c.png,done
1661895_96aba_5dc2de8aec35c.png,done,1661895_53963_5dc2de8c28125.png,done
1661895_53963_5dc2de8c28125.png,done,1661895_caef6_5dc2de8ce092a.png,done
1661895_2e91f_5dc2de92402c2.png,done,1661895_4a961_5dc2de93c86d2.png,done
1661895_4a961_5dc2de93c86d2.png,done,1661895_f9425_5dc2de9655fa0.png,done
1661895_ddcd3_5dc2de99c1278.png,done,1661895_77f50_5dc2de9a8f21d.png,done
1661895_77f50_5dc2de9a8f21d.png,done,1661895_33d28_5dc2de9c22b1b.png,done
1661895_33d28_5dc2de9c22b1b.png,done,1661895_1fc5f_5dc2de9dbca80.png,done
1661895_b12b2_5dc2dea52a05b.png,done,1661895_78456_5dc2dea561b04.png,done
1661895_695d8_5dc2dea7d4d09.png,done,1661895_165cd_5dc2dea9990b7.png,done
1661895_f13da_5dc2deac9479c.png,done,1661895_bc0b6_5dc2deacec5ab.png,done
1661895_bc0b6_5dc2deacec5ab.png,done,1661895_41ada_5dc2deadd8ae8.png,done
1661895_41ada_5dc2deadd8ae8.png,done,1661895_f10a8_5dc2deae78212.png,done
1661927_6e6fb_5dc2ded9af575.png,reviewed,1661927_721f6_5dc2deda6ce52.png,reviewed
1661927_721f6_5dc2deda6ce52.png,reviewed,1661927_b0bf0_5dc2deda87148.png,done
1661927_b0bf0_5dc2deda87148.png,done,1661927_690e2_5dc2deda8c749.png,done
1661927_690e2_5dc2deda8c749.png,done,1661927_10eca_5dc2dedaed9a7.png,done
1661927_e8eed_5dc2dee5a7abd.png,reviewed,1661927_486b6_5dc2dee656d33.png,reviewed
1661927_486b6_5dc2dee656d33.png,reviewed,1661927_9f284_5dc2dee6a513b.png,done
1661927_9f284_5dc2dee6a513b.png,done,1661927_45975_5dc2dee878a86.png,done
1661927_45975_5dc2dee878a86.png,done,1661927_cafff_5dc2dee918c24.png,done
1661927_cafff_5dc2dee918c24.png,done,1661927_8411c_5dc2deead2ff6.png,done
1661927_8411c_5dc2deead2ff6.png,done,1661927_39d73_5dc2deeb61ef5.png,done
1661927_39d73_5dc2deeb61ef5.png,done,1661927_113a0_5dc2deef3a262.png,done
1661927_f36cd_5dc2def0ee302.png,done,1661927_f345b_5dc2def195b25.png,done
1661927_f345b_5dc2def195b25.png,done,1661927_88668_5dc2def2c8796.png,done
1661927_88668_5dc2def2c8796.png,done,1661927_e5cbc_5dc2def2c2c67.png,done
1661927_e5cbc_5dc2def2c2c67.png,done,1661927_47a74_5dc2def3b0513.png,done
1661927_9292a_5dc2def5874db.png,done,1661927_2166f_5dc2def87fe37.png,done
1661927_2166f_5dc2def87fe37.png,done,1661927_1b84a_5dc2def8a2a24.png,done
1661927_1b84a_5dc2def8a2a24.png,done,1661927_4d6a8_5dc2defb0c3e3.png,done
1661927_4d6a8_5dc2defb0c3e3.png,done,1661927_5a11a_5dc2defcc98fc.png,done
1661927_5a11a_5dc2defcc98fc.png,done,1661927_8737a_5dc2defcee514.png,done
1661927_8737a_5dc2defcee514.png,done,1661927_44f5c_5dc2defd2c209.png,done
1661927_44f5c_5dc2defd2c209.png,done,1661927_49f50_5dc2defd9ccd7.png,done
1661927_49f50_5dc2defd9ccd7.png,done,1661927_6c0e1_5dc2defdedad3.png,done
1661927_6c0e1_5dc2defdedad3.png,done,1661927_93899_5dc2deff888ca.png,done
1661927_93899_5dc2deff888ca.png,done,1661927_67c23_5dc2df0111cd7.png,done
1661927_67c23_5dc2df0111cd7.png,done,1661927_0df3a_5dc2df029537b.png,done
1661927_0df3a_5dc2df029537b.png,done,1661927_417ea_5dc2df034dc22.png,done
1661927_417ea_5dc2df034dc22.png,done,1661927_0d53d_5dc2df053c9ee.png,done
1661927_7ea72_5dc2df09b5b90.png,done,1661927_6bc7e_5dc2df0a01fc1.png,done
1661927_6bc7e_5dc2df0a01fc1.png,done,1661927_821fd_5dc2df0a7e439.png,done
1661927_5637f_5dc2df13be785.png,done,1661927_4ceab_5dc2df13afd2c.png,done
1661927_4ceab_5dc2df13afd2c.png,done,1661927_a03aa_5dc2df1681fc7.png,done
1661927_92bff_5dc2df1d8ff42.png,done,1661927_ec947_5dc2df1e00191.png,done
1661927_ec947_5dc2df1e00191.png,done,1661927_89077_5dc2df1e23b49.png,done
1661927_3dfcb_5dc2df24079ab.png,done,1661927_93983_5dc2df277868b.png,done
1661927_8ea18_5dc2df2a9b8d9.png,done,1661927_35e7a_5dc2df2c83900.png,done
1661927_986b3_5dc2df3e61f04.png,done,1661927_6b5f7_5dc2df3e9608f.png,done
1662843_7043e_5dc2f9dbad22b.png,done,1662843_cd876_5dc2f9dc5d109.png,reviewed
1662843_cd876_5dc2f9dc5d109.png,reviewed,1662843_10190_5dc2f9de0bf98.png,reviewed
1662843_10190_5dc2f9de0bf98.png,reviewed,1662843_f5fcf_5dc2f9deaa352.png,done
1662843_f5fcf_5dc2f9deaa352.png,done,1662843_d261f_5dc2f9dedc436.png,done
1662843_2fc13_5dc2f9e5d9ba5.png,done,1662843_8956a_5dc2f9e746d5b.png,done
1662843_c299c_5dc2fa0492c46.png,done,1662843_80944_5dc2fa05e623f.png,done
1662843_6e5fc_5dc2fa1167ce2.png,done,1662843_6ef54_5dc2fa122337d.png,done
1662843_c1b51_5dc2fa1747b76.png,done,1662843_427f9_5dc2fa177d9f2.png,done
1662843_0340c_5dc2fa1f81ee9.png,done,1662843_961b3_5dc2fa203294f.png,done
1662843_961b3_5dc2fa203294f.png,done,1662843_78196_5dc2fa21684ee.png,done
1662843_8e8e3_5dc2fa23ac632.png,done,1662843_8da1d_5dc2fa2447970.png,done
1662843_29dbd_5dc2fa276b7ca.png,done,1662843_9e77c_5dc2fa27c8f8b.png,done
1662843_9e77c_5dc2fa27c8f8b.png,done,1662843_c0e81_5dc2fa2813952.png,done
1662843_6cbb8_5dc2fa2e6f2a5.png,done,1662843_d933d_5dc2fa2f246a8.png,reviewed
1662843_6c950_5dc2fa3c10481.png,done,1662843_6d7b5_5dc2fa3be8bd9.png,done
1662843_6d7b5_5dc2fa3be8bd9.png,done,1662843_2db9a_5dc2fa3c756cb.png,done
1662843_2db9a_5dc2fa3c756cb.png,done,1662843_96026_5dc2fa3dd9525.png,reviewed
1662843_96026_5dc2fa3dd9525.png,reviewed,1662843_b6992_5dc2fa3ded95a.png,reviewed
1662843_b6992_5dc2fa3ded95a.png,reviewed,1662843_c17ec_5dc2fa3e9da0b.png,done
1662843_928c2_5dc2fa4309907.png,done,1662843_6a7da_5dc2fa4344e22.png,done
1662843_42b0e_5dc2fa5482a7c.png,done,1662843_c6111_5dc2fa54cf153.png,done
1662843_13c6c_5dc2fa5778a65.png,reviewed,1662843_6ac4e_5dc2fa5899e12.png,reviewed
1662843_0f2c2_5dc2fa598b2a3.png,reviewed,1662843_29b66_5dc2fa59e093e.png,done
1662843_29b66_5dc2fa59e093e.png,done,1662843_4c52c_5dc2fa5a8f973.png,reviewed
1662843_4c52c_5dc2fa5a8f973.png,reviewed,1662843_59a4b_5dc2fa5b47531.png,reviewed
1662843_59a4b_5dc2fa5b47531.png,reviewed,1662843_87c4e_5dc2fa5c1942b.png,reviewed
1662843_87c4e_5dc2fa5c1942b.png,reviewed,1662843_6134a_5dc2fa5bdbd2b.png,reviewed
1662843_6134a_5dc2fa5bdbd2b.png,reviewed,1662843_12668_5dc2fa5d4c9f3.png,reviewed
1662843_12668_5dc2fa5d4c9f3.png,reviewed,1662843_fb34c_5dc2fa5e629e9.png,reviewed
1662843_9cc3d_5dc2fa5feeb37.png,reviewed,1662843_1f75b_5dc2fa604a5ee.png,done
1662843_74643_5dc2fa669c649.png,reviewed,1662843_b86f1_5dc2fa6756434.png,reviewed
1662843_fbc0b_5dc2fa67caf3d.png,reviewed,1662843_ad713_5dc2fa68e8ad9.png,done
1662847_1e1ee_5dc2f9d7dec6f.png,reviewed,1662847_47aa0_5dc2f9d908e1d.png,reviewed
1662847_d6e0e_5dc2f9da4baa4.png,reviewed,1662847_e7af4_5dc2f9db053df.png,reviewed
1662847_e7af4_5dc2f9db053df.png,reviewed,1662847_80ff5_5dc2f9da999c1.png,done
1662847_80ff5_5dc2f9da999c1.png,done,1662847_6a8b2_5dc2f9ddac230.png,reviewed
1662847_6a8b2_5dc2f9ddac230.png,reviewed,1662847_59dda_5dc2f9dc4ba62.png,reviewed
1662847_59dda_5dc2f9dc4ba62.png,reviewed,1662847_164aa_5dc2f9df1b947.png,reviewed
1662847_d7b21_5dc2f9debf554.png,done,1662847_dcdc9_5dc2f9df0d108.png,done
1662847_dcdc9_5dc2f9df0d108.png,done,1662847_2bfc5_5dc2f9df39acb.png,done
1662847_2bfc5_5dc2f9df39acb.png,done,1662847_3cc5c_5dc2f9dfe77ba.png,reviewed
1662847_3cc5c_5dc2f9dfe77ba.png,reviewed,1662847_057df_5dc2f9e0ea304.png,done
1662847_057df_5dc2f9e0ea304.png,done,1662847_72466_5dc2f9e1b1490.png,done
1662847_72466_5dc2f9e1b1490.png,done,1662847_4c8b0_5dc2f9e3465a1.png,done
1662847_4c8b0_5dc2f9e3465a1.png,done,1662847_9620d_5dc2f9e39bcd5.png,done
1662847_9620d_5dc2f9e39bcd5.png,done,1662847_520b0_5dc2f9e51977d.png,done
1662847_520b0_5dc2f9e51977d.png,done,1662847_b327d_5dc2f9e63186d.png,done
1662847_b327d_5dc2f9e63186d.png,done,1662847_b47ac_5dc2f9e695b5e.png,done
1662847_b47ac_5dc2f9e695b5e.png,done,1662847_120af_5dc2f9e7428f3.png,done
1662847_120af_5dc2f9e7428f3.png,done,1662847_09945_5dc2f9e7d9139.png,done
1662847_09945_5dc2f9e7d9139.png,done,1662847_10314_5dc2f9e951951.png,done
1662847_10314_5dc2f9e951951.png,done,1662847_5df6d_5dc2f9e9b471a.png,done
1662847_5df6d_5dc2f9e9b471a.png,done,1662847_6892d_5dc2f9ea303df.png,done
1662847_6892d_5dc2f9ea303df.png,done,1662847_10e69_5dc2f9ea48b9e.png,done
1662847_9af0f_5dc2f9f013531.png,done,1662847_98893_5dc2f9f101d17.png,done
1662847_98893_5dc2f9f101d17.png,done,1662847_8a1ff_5dc2f9f189fe7.png,done
1662847_8a1ff_5dc2f9f189fe7.png,done,1662847_3263c_5dc2f9f2f007c.png,done
2179127_0ed00_2_5eea2849bf2b2.png,reviewed,2179127_e4c62_3_5eea284c8d2f5.png,reviewed
2179127_be7a6_6_5eea284ec0099.png,reviewed,2179127_4d229_7_5eea284eab4a9.png,reviewed
2179127_4d229_7_5eea284eab4a9.png,reviewed,2179127_41818_8_5eea284e17d13.png,done
2179127_41818_8_5eea284e17d13.png,done,2179127_f0987_9_5eea284f3a4e1.png,reviewed
2179127_f0987_9_5eea284f3a4e1.png,reviewed,2179127_1b264_10_5eea285ea8788.png,reviewed
2179127_1b264_10_5eea285ea8788.png,reviewed,2179127_b7eed_11_5eea285c11acd.png,reviewed
2179127_b7eed_11_5eea285c11acd.png,reviewed,2179127_b3f10_12_5eea285ebabe0.png,reviewed
2179127_b3f10_12_5eea285ebabe0.png,reviewed,2179127_a5ce1_13_5eea285eb7921.png,reviewed
2179127_a5ce1_13_5eea285eb7921.png,reviewed,2179127_6074a_14_5eea285eaa5a5.png,done
2179127_6074a_14_5eea285eaa5a5.png,done,2179127_8872e_15_5eea285ea8a5b.png,done
2179127_8872e_15_5eea285ea8a5b.png,done,2179127_79985_16_5eea285ead7b2.png,reviewed
2179127_79985_16_5eea285ead7b2.png,reviewed,2179127_eb038_17_5eea285e9b9a1.png,reviewed
2179127_eb038_17_5eea285e9b9a1.png,reviewed,2179127_57526_18_5eea285e98088.png,done
2179127_57526_18_5eea285e98088.png,done,2179127_8b807_19_5eea2860073b9.png,done
2179127_8b807_19_5eea2860073b9.png,done,2179127_bc183_20_5eea28695cd5f.png,done
2179127_bc183_20_5eea28695cd5f.png,done,2179127_bf284_21_5eea2863083c3.png,done
2179127_bf284_21_5eea2863083c3.png,done,2179127_54b1e_22_5eea2864c8998.png,done
2179127_54b1e_22_5eea2864c8998.png,done,2179127_260a1_23_5eea286840c78.png,done
2179127_260a1_23_5eea286840c78.png,done,2179127_c5eaf_24_5eea2864b8579.png,done
2179127_c5eaf_24_5eea2864b8579.png,done,2179127_81756_25_5eea287094f2b.png,done
2179127_81756_25_5eea287094f2b.png,done,2179127_f2710_26_5eea28673d082.png,done
2179127_f2710_26_5eea28673d082.png,done,2179127_5d892_27_5eea286a5335c.png,done
2179127_5d892_27_5eea286a5335c.png,done,2179127_2a22d_28_5eea286b16c0b.png,done
2179127_2a22d_28_5eea286b16c0b.png,done,2179127_a2007_29_5eea287111270.png,done
2179127_e9760_31_5eea286f3bfee.png,done,2179127_317a9_32_5eea287187494.png,done
2179127_5fd7b_35_5eea2877b9e8c.png,done,2179127_e33d8_36_5eea28775d356.png,done
2179127_2e4ed_44_5eea2882be1ad.png,done,2179127_a2b74_45_5eea28841ced7.png,done
2179127_2c2a3_49_5eea2886219b8.png,done,2179127_aa0a7_50_5eea288a2ba99.png,done
2179127_aa0a7_50_5eea288a2ba99.png,done,2179127_65cef_51_5eea288dab304.png,done
2179127_65cef_51_5eea288dab304.png,done,2179127_d3a8c_52_5eea288d049cf.png,done
2179127_d3a8c_52_5eea288d049cf.png,done,2179127_ef062_53_5eea288a2ef2f.png,done
2179127_19f1a_55_5eea288f91389.png,done,2179127_8e81d_56_5eea288eb77fe.png,done
2179127_a1b93_63_5eea289830785.png,done,2179127_6cb9b_64_5eea2899a4888.png,done
2179127_55572_66_5eea289f60987.png,done,2179127_31aa7_67_5eea289df2c2a.png,done
2179127_31aa7_67_5eea289df2c2a.png,done,2179127_03060_68_5eea28a1d1721.png,done
2179127_03060_68_5eea28a1d1721.png,done,2179127_370ed_69_5eea28a1d9826.png,done
2179127_7f412_72_5eea28a6100f7.png,done,2179127_08515_73_5eea28a3df322.png,done
2179127_5f812_78_5eea28acb9e8b.png,done,2179127_7658e_79_5eea28ad5ab6f.png,done
2179127_7658e_79_5eea28ad5ab6f.png,done,2179127_d30d2_80_5eea28ad1c5fc.png,done
2179127_d30d2_80_5eea28ad1c5fc.png,done,2179127_107d8_81_5eea28b295443.png,done
2179127_107d8_81_5eea28b295443.png,done,2179127_59069_82_5eea28adf0712.png,done
2179127_59069_82_5eea28adf0712.png,done,2179127_adf89_83_5eea28af5740c.png,done
2179127_adf89_83_5eea28af5740c.png,done,2179127_cea96_84_5eea28b069337.png,done
2179127_cea96_84_5eea28b069337.png,done,2179127_82700_85_5eea28b0ec1ca.png,done
2179127_82700_85_5eea28b0ec1ca.png,done,2179127_a4c20_86_5eea28b28588f.png,done
2179127_a4c20_86_5eea28b28588f.png,done,2179127_4e104_87_5eea28b497e21.png,done
2179127_4e104_87_5eea28b497e21.png,done,2179127_87304_88_5eea28b7992c3.png,done
2179127_87304_88_5eea28b7992c3.png,done,2179127_b4699_89_5eea28b6aaa15.png,done
2179127_b4699_89_5eea28b6aaa15.png,done,2179127_da93b_90_5eea28b823d5e.png,done
2179127_da93b_90_5eea28b823d5e.png,done,2179127_b4807_91_5eea28bab39e7.png,done
2179127_fc7c3_93_5eea28b9bdfc5.png,done,2179127_19a6e_94_5eea28baab871.png,done
2179127_19a6e_94_5eea28baab871.png,done,2179127_8c7cc_95_5eea28bc5d11b.png,done
2179127_8c7cc_95_5eea28bc5d11b.png,done,2179127_50a8a_96_5eea28bddfebc.png,done
2179127_50a8a_96_5eea28bddfebc.png,done,2179127_d7dbf_97_5eea28be7993d.png,done
2179127_d7dbf_97_5eea28be7993d.png,done,2179127_835ae_98_5eea28c2732f5.png,done
2179127_835ae_98_5eea28c2732f5.png,done,2179127_1da9e_99_5eea28c19e207.png,done
2179127_1da9e_99_5eea28c19e207.png,done,2179127_aed9a_100_5eea28c1c0805.png,done
2179127_aed9a_100_5eea28c1c0805.png,done,2179127_5a7c3_101_5eea28c4b1ad8.png,done
2179127_5a7c3_101_5eea28c4b1ad8.png,done,2179127_76fd3_102_5eea28c54670a.png,done
2179127_76fd3_102_5eea28c54670a.png,done,2179127_1ca24_103_5eea28c35212d.png,done
2179127_1ca24_103_5eea28c35212d.png,done,2179127_46add_104_5eea28c49a0ca.png,done
2179127_25799_106_5eea28c8c0138.png,done,2179127_d1429_107_5eea28ca00417.png,done
2179127_d1429_107_5eea28ca00417.png,done,2179127_78cce_108_5eea28cc0a4b8.png,done
2179127_05a12_112_5eea28cf8d180.png,done,2179127_640c9_113_5eea28cc28ea6.png,done
2179127_640c9_113_5eea28cc28ea6.png,done,2179127_26263_114_5eea28cc9d5af.png,done
2179127_6dbd8_119_5eea28d602f5f.png,done,2179127_e6f80_120_5eea28d66abab.png,done
2179127_fb0bf_122_5eea28db1fe44.png,done,2179127_3c5f7_123_5eea28d920a4a.png,done
2179127_6c2fc_146_5eea28f4ce223.png,done,2179127_5c925_147_5eea28f8388c1.png,done
2179135_3982a_13_5eea285634094.png,done,2179135_bd807_14_5eea285ea48e2.png,done
2179135_bd807_14_5eea285ea48e2.png,done,2179135_65a34_15_5eea285f5b924.png,done
2179135_65a34_15_5eea285f5b924.png,done,2179135_91ed4_16_5eea285f5c0da.png,done
2179135_91ed4_16_5eea285f5c0da.png,done,2179135_6fd6d_17_5eea285ebe2e2.png,done
2179135_fb892_21_5eea28630e971.png,done,2179135_55a76_22_5eea286119bbb.png,done
2179135_55a76_22_5eea286119bbb.png,done,2179135_f0f78_23_5eea28678d9d8.png,done
2179135_f0f78_23_5eea28678d9d8.png,done,2179135_0fb00_24_5eea2867ac50d.png,done
2179135_0fb00_24_5eea2867ac50d.png,done,2179135_362f2_25_5eea286c415f8.png,done
2179135_a954f_28_5eea286c11fc4.png,done,2179135_edf6c_29_5eea286b6dbe2.png,done
2179135_edf6c_29_5eea286b6dbe2.png,done,2179135_480c3_30_5eea286a46f89.png,done
2179135_480c3_30_5eea286a46f89.png,done,2179135_38d84_31_5eea286d84a55.png,done
2179135_e092b_37_5eea287605c80.png,done,2179135_30869_38_5eea2875ade6e.png,done
2179135_63705_43_5eea287e0ce44.png,done,2179135_f4771_44_5eea2880af12b.png,done
2179135_4f7b2_47_5eea2883ec70c.png,done,2179135_084f2_48_5eea2882627c6.png,done
2179135_084f2_48_5eea2882627c6.png,done,2179135_bc822_49_5eea28828aaa0.png,done
2179135_5d817_52_5eea2887a4699.png,done,2179135_046ff_53_5eea28894a355.png,done
2179135_046ff_53_5eea28894a355.png,done,2179135_e6bc5_54_5eea288e945a2.png,done
2179135_e6bc5_54_5eea288e945a2.png,done,2179135_e9086_55_5eea288c49a01.png,done
2179135_a5988_59_5eea289069fb3.png,done,2179135_858c3_60_5eea28935f65c.png,done
2179135_858c3_60_5eea28935f65c.png,done,2179135_c50f9_61_5eea28935d907.png,done
2179135_c50f9_61_5eea28935d907.png,done,2179135_13ac1_62_5eea28947c2cc.png,done
2179135_5d459_66_5eea289b53593.png,done,2179135_d33fa_67_5eea289c91bbd.png,done
2179135_a6233_69_5eea289f9565c.png,done,2179135_6498e_70_5eea289fcb0e1.png,done
2179135_c217f_78_5eea28a5ae455.png,done,2179135_5c415_79_5eea28a9cd050.png,done
2179135_5c415_79_5eea28a9cd050.png,done,2179135_eb0cd_80_5eea28a88b2f1.png,done
2179135_eb0cd_80_5eea28a88b2f1.png,done,2179135_78b26_81_5eea28a9aa709.png,done
2179135_75f81_84_5eea28addaecf.png,done,2179135_4eafe_85_5eea28afb0f70.png,done
2179135_4eafe_85_5eea28afb0f70.png,done,2179135_0bc23_86_5eea28b2e6b83.png,done
2179135_0bc23_86_5eea28b2e6b83.png,done,2179135_6df52_87_5eea28b1dc232.png,done
2179135_7f0cf_117_5eea28cc34b28.png,done,2179135_1d664_118_5eea28cbf29c8.png,done
2179135_1d664_118_5eea28cbf29c8.png,done,2179135_582dd_119_5eea28cf92852.png,done
2179135_83b96_121_5eea28cfa5802.png,reviewed,2179135_f6641_122_5eea28d4c043c.png,reviewed
2179135_f6641_122_5eea28d4c043c.png,reviewed,2179135_a561a_123_5eea28d3b2348.png,done
2179135_077df_148_5eea28f2b4fdb.png,done,2179135_9783d_149_5eea28f57d730.png,done
2179135_9783d_149_5eea28f57d730.png,done,2179135_243b5_150_5eea28ee84810.png,done
2179135_243b5_150_5eea28ee84810.png,done,2179135_09b4e_151_5eea28f00908f.png,done
2179135_0edf3_157_5eea28fc4d687.png,done,2179135_094be_158_5eea28f9a52c5.png,done
2179135_094be_158_5eea28f9a52c5.png,done,2179135_c66f7_159_5eea28fa58b9a.png,done
2179135_c66f7_159_5eea28fa58b9a.png,done,2179135_e0133_160_5eea28fe97a78.png,done
2179135_e0133_160_5eea28fe97a78.png,done,2179135_674e4_161_5eea28ff16b08.png,done
2179135_674e4_161_5eea28ff16b08.png,done,2179135_6ef0f_162_5eea28ff185af.png,done
2179135_8a3ea_165_5eea2904271ef.png,reviewed,2179135_dc9b6_166_5eea2902394a5.png,done
2179135_16df1_187_5eea29137d44d.png,done,2179135_3cca0_188_5eea29155b889.png,reviewed
2179135_3cca0_188_5eea29155b889.png,reviewed,2179135_ab96b_189_5eea29165501b.png,done
2179135_ab96b_189_5eea29165501b.png,done,2179135_e31ad_190_5eea291a0feeb.png,done
2179135_7000c_196_5eea291a49559.png,done,2179135_69fc3_197_5eea291bec81a.png,done
2179135_10e0c_204_5eea292272abf.png,done,2179135_6fcd5_205_5eea2922c660b.png,done
2179135_fd0a7_210_5eea29280063c.png,done,2179135_8e06c_211_5eea2926e57ad.png,done
2179135_8e06c_211_5eea2926e57ad.png,done,2179135_d3dfc_212_5eea292897fee.png,done
2179135_b33ae_217_5eea292d881cd.png,done,2179135_dd1a6_218_5eea292fa8940.png,reviewed
2179135_dd1a6_218_5eea292fa8940.png,reviewed,2179135_8b759_219_5eea292e0a0ec.png,done
2179135_8b759_219_5eea292e0a0ec.png,done,2179135_83b20_220_5eea292f935ab.png,done
2179135_0abd6_224_5eea293796005.png,done,2179135_3aab0_225_5eea29384eb4b.png,reviewed
2179135_3aab0_225_5eea29384eb4b.png,reviewed,2179135_64d0f_226_5eea2939a4079.png,done
2179135_64d0f_226_5eea2939a4079.png,done,2179135_caa2b_227_5eea2936d47ad.png,done
2179135_caa2b_227_5eea2936d47ad.png,done,2179135_dc531_228_5eea2938c5e6c.png,done
2179135_46b9a_231_5eea293e97fdc.png,done,2179135_13835_232_5eea293e7e047.png,done
2179135_b1544_234_5eea2941d7b70.png,done,2179135_a1d3c_235_5eea2940cdbbc.png,done
2179135_401c7_255_5eea2956cb21c.png,done,2179135_cd012_256_5eea2957c6060.png,done
2179135_cd012_256_5eea2957c6060.png,done,2179135_35c97_257_5eea2958997e3.png,done
2179135_35c97_257_5eea2958997e3.png,done,2179135_20c32_258_5eea2959489af.png,done
2179135_20c32_258_5eea2959489af.png,done,2179135_f5f47_259_5eea29576e664.png,done
2179135_f41e8_261_5eea295e50e3e.png,done,2179135_ebeb9_262_5eea295b4bdf7.png,done
2179135_ebeb9_262_5eea295b4bdf7.png,done,2179135_8c3a3_263_5eea295adf42f.png,done
2179135_cad43_276_5eea296d1d648.png,done,2179135_5b4df_277_5eea296e053d3.png,reviewed
2179135_76665_290_5eea297a4ba86.png,done,2179135_caea6_291_5eea297884d74.png,reviewed
2179135_caea6_291_5eea297884d74.png,reviewed,2179135_2f67b_292_5eea297929f29.png,reviewed
2179135_2f67b_292_5eea297929f29.png,reviewed,2179135_6a714_293_5eea297d0b974.png,reviewed
2179135_6a714_293_5eea297d0b974.png,reviewed,2179135_041dc_294_5eea297c519d5.png,reviewed
2179135_ceb55_297_5eea298225d55.png,reviewed,2179135_05764_298_5eea298293cf6.png,reviewed
2179135_05764_298_5eea298293cf6.png,reviewed,2179135_30c40_299_5eea2983dceb8.png,reviewed
2179135_30c40_299_5eea2983dceb8.png,reviewed,2179135_032ac_300_5eea29825c060.png,reviewed
2179135_032ac_300_5eea29825c060.png,reviewed,2179135_34b1a_301_5eea298543f95.png,reviewed
2179135_34b1a_301_5eea298543f95.png,reviewed,2179135_1ed06_302_5eea29847bab1.png,reviewed
2179135_1ed06_302_5eea29847bab1.png,reviewed,2179135_3236b_303_5eea298651999.png,reviewed
2179135_3236b_303_5eea298651999.png,reviewed,2179135_9596d_304_5eea29866ff35.png,reviewed
2179135_2fcf4_306_5eea2989d6000.png,reviewed,2179135_0d35f_307_5eea298cec3ba.png,reviewed
2179135_0d35f_307_5eea298cec3ba.png,reviewed,2179135_3cace_308_5eea298c5315f.png,reviewed
2179135_3cace_308_5eea298c5315f.png,reviewed,2179135_2331a_309_5eea298d3837f.png,reviewed
2179135_2669c_320_5eea2998b30a0.png,reviewed,2179135_e8905_321_5eea2999a5c31.png,reviewed
2179135_e8905_321_5eea2999a5c31.png,reviewed,2179135_1c561_322_5eea29995ea51.png,reviewed
2179135_dd520_492_5eea2a5ae2f08.png,reviewed,2179135_cefe2_493_5eea2a5adad3a.png,reviewed
2179135_cefe2_493_5eea2a5adad3a.png,reviewed,2179135_90950_494_5eea2a5c028cb.png,done
2179135_90950_494_5eea2a5c028cb.png,done,2179135_0c604_495_5eea2a5d8cd56.png,done
2179135_0c604_495_5eea2a5d8cd56.png,done,2179135_d0998_496_5eea2a5e9c5ff.png,done
2179135_d0998_496_5eea2a5e9c5ff.png,done,2179135_6d2be_497_5eea2a5c887d2.png,done
2179135_6d2be_497_5eea2a5c887d2.png,done,2179135_f669a_498_5eea2a5d8edc4.png,done
2179135_f669a_498_5eea2a5d8edc4.png,done,2179135_920dd_499_5eea2a5f561a5.png,done
2179135_920dd_499_5eea2a5f561a5.png,done,2179135_87110_500_5eea2a618593f.png,done
2179135_87110_500_5eea2a618593f.png,done,2179135_4876a_501_5eea2a63c479e.png,done
2179135_4876a_501_5eea2a63c479e.png,done,2179135_6c047_502_5eea2a634d328.png,done
2179135_6c047_502_5eea2a634d328.png,done,2179135_d71ff_503_5eea2a64d0a00.png,done
2179135_d71ff_503_5eea2a64d0a00.png,done,2179135_cf877_504_5eea2a66581ea.png,done
2179135_cf877_504_5eea2a66581ea.png,done,2179135_9941b_505_5eea2a678c87b.png,done
2179135_875fc_515_5eea2a6f35553.png,done,2179135_7219c_516_5eea2a6e9d1a2.png,done
2179135_7219c_516_5eea2a6e9d1a2.png,done,2179135_887ee_517_5eea2a72c75a9.png,done
2179135_887ee_517_5eea2a72c75a9.png,done,2179135_41ed4_518_5eea2a6f8975e.png,done
2179135_70ad3_520_5eea2a8857767.png,done,2179135_892ee_521_5eea2a77a5603.png,done
2179135_3f936_523_5eea2a77ee14f.png,done,2179135_1df05_524_5eea2a867168f.png,done
2179135_1df05_524_5eea2a867168f.png,done,2179135_12337_525_5eea2a88549f6.png,done
2179135_12337_525_5eea2a88549f6.png,done,2179135_47314_526_5eea2a78d541d.png,done
2179135_be858_529_5eea2a88b225a.png,done,2179135_b53be_530_5eea2a88be187.png,done
2179135_b53be_530_5eea2a88be187.png,done,2179135_3f853_531_5eea2a893559e.png,done
2179135_3f853_531_5eea2a893559e.png,done,2179135_37c6f_532_5eea2a88b830f.png,done
2179135_d01c6_536_5eea2a896aeb6.png,done,2179135_57855_537_5eea2a93bedc6.png,done
2179135_57855_537_5eea2a93bedc6.png,done,2179135_6a209_538_5eea2a95a608d.png,done
2179135_6a209_538_5eea2a95a608d.png,done,2179135_20f53_539_5eea2a9b44874.png,done
2179135_1841b_546_5eea2a9911774.png,done,2179135_d1700_547_5eea2a9bdeb00.png,done
2179135_d1700_547_5eea2a9bdeb00.png,done,2179135_86cea_548_5eea2a9f69596.png,done
2179135_e16a4_550_5eea2aa1ab7b6.png,done,2179135_bc5b2_551_5eea2aa474503.png,done
2179135_8d793_555_5eea2aa669326.png,done,2179135_c86be_556_5eea2aa583dd7.png,done
2179139_c8511_1275_5eea2cdf3d236.png,done,2179139_272ca_1276_5eea2cdf7ed83.png,done
2179139_272ca_1276_5eea2cdf7ed83.png,done,2179139_b2417_1277_5eea2ce25ff33.png,done
2179139_a4f3f_1280_5eea2ce297140.png,done,2179139_36c1f_1281_5eea2ce55a674.png,done
2179139_36c1f_1281_5eea2ce55a674.png,done,2179139_3c49a_1282_5eea2ce8712e1.png,done
2179139_3c49a_1282_5eea2ce8712e1.png,done,2179139_ba131_1283_5eea2ce84fd91.png,done
2179139_679bd_1286_5eea2ce95a0d6.png,done,2179139_7d2ff_1287_5eea2ceb8f343.png,done
2179139_7d2ff_1287_5eea2ceb8f343.png,done,2179139_b0670_1288_5eea2cebbf2df.png,done
2179139_b0670_1288_5eea2cebbf2df.png,done,2179139_d0192_1289_5eea2cec3c12a.png,done
2179139_d0192_1289_5eea2cec3c12a.png,done,2179139_2c944_1290_5eea2ced262e8.png,done
2179139_2c944_1290_5eea2ced262e8.png,done,2179139_b8c30_1291_5eea2ceddc376.png,done
2179139_b8c30_1291_5eea2ceddc376.png,done,2179139_b7051_1292_5eea2cf20e02b.png,done
2179139_b7051_1292_5eea2cf20e02b.png,done,2179139_807ce_1293_5eea2cf28091c.png,done
2179139_21966_1296_5eea2cf48cb16.png,done,2179139_b0086_1297_5eea2cf783f33.png,done
2179139_b0086_1297_5eea2cf783f33.png,done,2179139_c0567_1298_5eea2cf3913b8.png,done
2179139_c0567_1298_5eea2cf3913b8.png,done,2179139_b9b34_1299_5eea2cf534520.png,done
2179139_b9b34_1299_5eea2cf534520.png,done,2179139_9fca6_1300_5eea2cf5ec68d.png,done
2179139_b6607_1307_5eea2cff11b97.png,done,2179139_4aac0_1308_5eea2cfe2d516.png,done
2179139_4aac0_1308_5eea2cfe2d516.png,done,2179139_32b77_1309_5eea2cffbf4de.png,done
2179139_32b77_1309_5eea2cffbf4de.png,done,2179139_a34b5_1310_5eea2d0045e44.png,done
